{
    "data": {
        "source": "data",
        "format": "BS",
        "paths": [
            "/cvmfs/atlas-nightlies.cern.ch/repo/data/data-art/TrigP1Test/data17_13TeV.00327265.physics_EnhancedBias.merge.RAW._lb0100._SFO-1._0001.1"
        ]
    },
    "data_run1": {
        "source": "data",
        "format": "BS",
        "paths": [
            "/cvmfs/atlas-nightlies.cern.ch/repo/data/data-art/TrigAnalysisTest/data12_8TeV.00209109.physics_JetTauEtmiss.merge.RAW._lb0186._SFO-1._0001.1"
        ]
    },
    "data_cos": {
        "source": "data",
        "format": "BS",
        "paths": [
            "/cvmfs/atlas-nightlies.cern.ch/repo/data/data-art/TrigP1Test/data16_cos.00306147.physics_Main.daq.RAW._lb0494._SFO-4._0001.data"
        ]
    },
    "data_cos_CosmicMuons": {
        "source": "data",
        "format": "BS",
        "paths": [
            "/cvmfs/atlas-nightlies.cern.ch/repo/data/data-art/TrigP1Test/data16_cos.00306147.physics_CosmicMuons.merge.RAW._lb0494._SFO-ALL._0001.1"
        ]
    },
    "data_cos_IDCosmic": {
        "source": "data",
        "format": "BS",
        "paths": [
            "/cvmfs/atlas-nightlies.cern.ch/repo/data/data-art/TrigP1Test/data16_cos.00306147.physics_IDCosmic.merge.RAW._lb0494._SFO-ALL._0001.1"
        ]
    },
    "ttbar": {
        "source": "mc",
        "format": "RDO",
        "paths": [
            "/cvmfs/atlas-nightlies.cern.ch/repo/data/data-art/TriggerTest/valid1.410000.PowhegPythiaEvtGen_P2012_ttbar_hdamp172p5_nonallhad.merge.RDO.e4993_s3214_r11315/RDO.17533168._000001.pool.root.1",
            "/cvmfs/atlas-nightlies.cern.ch/repo/data/data-art/TriggerTest/valid1.410000.PowhegPythiaEvtGen_P2012_ttbar_hdamp172p5_nonallhad.merge.RDO.e4993_s3214_r11315/RDO.17533168._000002.pool.root.1"
        ]
    },
    "ttbar_rel21": {
        "source": "mc",
        "format": "RDO",
        "paths": [
            "/cvmfs/atlas-nightlies.cern.ch/repo/data/data-art/TriggerTest/valid1.410000.PowhegPythiaEvtGen_P2012_ttbar_hdamp172p5_nonallhad.digit.RDO_FTK.e4993_s3214_r11234_d1505/RDO_FTK.17071950._000065.pool.root.1",
            "/cvmfs/atlas-nightlies.cern.ch/repo/data/data-art/TriggerTest/valid1.410000.PowhegPythiaEvtGen_P2012_ttbar_hdamp172p5_nonallhad.digit.RDO_FTK.e4993_s3214_r11234_d1505/RDO_FTK.17071950._000235.pool.root.1"
        ]
    },
    "ttbar_HITS": {
        "source": "mc",
        "format": "HITS",
        "paths": [
            "/cvmfs/atlas-nightlies.cern.ch/repo/data/data-art/TrigAnalysisTest/valid1.410000.PowhegPythiaEvtGen_P2012_ttbar_hdamp172p5_nonallhad.simul.HITS.e4993_s3091_tid10504490_00/HITS.10504490._000001.pool.root.1"
        ]
    },
    "pileup_low": {
        "source": "mc",
        "format": "HITS",
        "paths": [
            "/cvmfs/atlas-nightlies.cern.ch/repo/data/data-art/TrigAnalysisTest/mc16_13TeV.361238.Pythia8EvtGen_A3NNPDF23LO_minbias_inelastic_low.simul.HITS.e4981_s3087_s3111_tid10701323_00/HITS.10701323._000001.pool.root.1"
        ]
    },
    "pileup_high": {
        "source": "mc",
        "format": "HITS",
        "paths": [
            "/cvmfs/atlas-nightlies.cern.ch/repo/data/data-art/TrigAnalysisTest/mc16_13TeV.361239.Pythia8EvtGen_A3NNPDF23LO_minbias_inelastic_high.simul.HITS.e4981_s3087_s3111_tid10701335_00/HITS.10701335._000011.pool.root.1"
        ]
    }
}